{
    "identityPoolName": "meshdrivev208f98c11_identitypool_e1636ec4",
    "allowUnauthenticatedIdentities": false,
    "resourceNameTruncated": "meshdr08f98c11",
    "userPoolName": "meshdrivev208f98c11_userpool_08f98c11",
    "autoVerifiedAttributes": [
        "email"
    ],
    "mfaConfiguration": "OFF",
    "mfaTypes": [
        "SMS Text Message"
    ],
    "smsAuthenticationMessage": "Your authentication code is {####}",
    "smsVerificationMessage": "Your verification code is {####}",
    "emailVerificationSubject": "Your verification code",
    "emailVerificationMessage": "Your verification code is {####}",
    "defaultPasswordPolicy": true,
    "passwordPolicyMinLength": "6",
    "passwordPolicyCharacters": [
        "Requires Lowercase",
        "Requires Uppercase",
        "Requires Numbers"
    ],
    "requiredAttributes": [
        "email"
    ],
    "userpoolClientGenerateSecret": true,
    "userpoolClientRefreshTokenValidity": "180",
    "userpoolClientWriteAttributes": [
        "email"
    ],
    "userpoolClientReadAttributes": [
        "email"
    ],
    "userpoolClientLambdaRole": "meshdr08f98c11_userpoolclient_lambda_role",
    "userpoolClientSetAttributes": true,
    "sharedId": "08f98c11",
    "resourceName": "meshdrivev208f98c11",
    "authSelections": "identityPoolAndUserPool",
    "authRoleArn": {
        "Fn::GetAtt": [
            "AuthRole",
            "Arn"
        ]
    },
    "unauthRoleArn": {
        "Fn::GetAtt": [
            "UnauthRole",
            "Arn"
        ]
    },
    "useDefault": "manual",
    "usernameAttributes": [
        "email"
    ],
    "userPoolGroupList": [
        "admin"
    ],
    "dependsOn": [],
    "userPoolGroups": true,
    "adminQueries": true,
    "triggers": "{}",
    "hostedUI": false,
    "adminQueryGroup": "admin",
    "parentStack": {
        "Ref": "AWS::StackId"
    },
    "permissions": []
}