{
  "dev": {
    "awscloudformation": {
      "AuthRoleName": "amplify-meshdrivev2-dev-01439-authRole",
      "UnauthRoleArn": "arn:aws:iam::030159960733:role/amplify-meshdrivev2-dev-01439-unauthRole",
      "AuthRoleArn": "arn:aws:iam::030159960733:role/amplify-meshdrivev2-dev-01439-authRole",
      "Region": "ap-southeast-1",
      "DeploymentBucketName": "amplify-meshdrivev2-dev-01439-deployment",
      "UnauthRoleName": "amplify-meshdrivev2-dev-01439-unauthRole",
      "StackName": "amplify-meshdrivev2-dev-01439",
      "StackId": "arn:aws:cloudformation:ap-southeast-1:030159960733:stack/amplify-meshdrivev2-dev-01439/2b1f8c20-5922-11eb-b882-0a28372d2db4",
      "AmplifyAppId": "dlgd8wo8blxbs"
    },
    "categories": {
      "auth": {
        "meshdrivev208f98c11": {},
        "userPoolGroups": {}
      },
      "function": {
        "AdminQueries7f8bd23d": {
          "deploymentBucketName": "amplify-meshdrivev2-dev-01439-deployment",
          "s3Key": "amplify-builds/AdminQueries7f8bd23d-394b3341695931444b76-build.zip"
        }
      }
    }
  }
}